Use of Conditional statement
…
# Load csv file an excel for exrcise

chinook = read.csv("chinook_lw.csv")
grade_score = readxl::read_excel("student_score.xlsx")

grade_score |> 
  mutate(grade = case_when(score >=70 ~ "A",
                           score >=60 & score <70 ~ "B+",
                           score >=50 & score <60 ~ "B-",
                           score >=40 &score <50 ~ "C",
                           score <40 ~ "D"),
         status = if_else(score <50, "Fail", "Pass"))

# A tibble: 33 × 3
   score grade status
   <dbl> <chr> <chr> 
 1  62.9 B+    Pass  
 2  25   D     Fail  
 3  56.7 B-    Pass  
 4  70.9 A     Pass  
 5  49.8 C     Fail  
 6  69.3 B+    Pass  
 7  80.5 A     Pass  
 8  60.3 B+    Pass  
 9  65.7 B+    Pass  
10  58.9 B-    Pass  
# ℹ 23 more rows
…
